<!DOCTYPE svg PUBLIC "-//W3C//DTD SVG 1.1//EN" "http://www.w3.org/Graphics/SVG/1.1/DTD/svg11.dtd">
<!-- Uploaded to: SVG Repo, www.svgrepo.com, Transformed by: SVG Repo Mixer Tools -->
<svg fill="#1c71d8" height="800px" width="800px" version="1.1" id="Layer_1" xmlns="http://www.w3.org/2000/svg" xmlns:xlink="http://www.w3.org/1999/xlink" viewBox="0 0 512 512" xml:space="preserve">
<g id="SVGRepo_bgCarrier" stroke-width="0"/>
<g id="SVGRepo_tracerCarrier" stroke-linecap="round" stroke-linejoin="round"/>
<g id="SVGRepo_iconCarrier"> <g> <g> <path d="M497.302,336.858l-71.313-69.873c0.232-3.655,0.363-7.33,0.363-10.986c0-4.434-0.186-8.876-0.526-13.278l70.371-70.757 c4.957-4.98,6.396-12.381,3.669-18.859c-2.708-6.43-8.938-10.56-15.915-10.56c-0.055,0-0.112,0-0.168,0.001l-99.813,1.041 c-5.33-6.072-11.104-11.776-17.256-17.042l-0.287-99.841c-0.023-7.029-4.248-13.279-10.765-15.924 c-6.514-2.644-13.901-1.101-18.804,3.913l-69.875,71.314c-8.062-0.509-16.224-0.456-24.261,0.163l-70.759-70.37 c-4.982-4.962-12.388-6.403-18.866-3.676c-6.479,2.728-10.62,9.034-10.552,16.074l1.041,99.824 c-6.094,5.357-11.79,11.129-17.021,17.244l-99.86,0.291c-7.031,0.023-13.281,4.249-15.925,10.766 c-2.644,6.514-1.103,13.901,3.913,18.803l71.313,69.873c-0.232,3.658-0.363,7.336-0.363,10.999c0,4.425,0.185,8.865,0.524,13.266 l-70.372,70.757c-4.959,4.984-6.402,12.388-3.673,18.865c2.707,6.426,8.932,10.553,15.906,10.553c0.055,0,0.112,0,0.167-0.001 l99.808-1.041c5.348,6.087,11.125,11.789,17.261,17.035l0.29,99.849c0.023,7.025,4.242,13.275,10.749,15.921 c2.119,0.863,4.332,1.282,6.522,1.282c4.535,0,8.975-1.798,12.297-5.182l69.874-71.313c3.658,0.232,7.336,0.363,10.999,0.363 c4.427,0,8.87-0.185,13.278-0.524l70.745,70.369c3.307,3.292,7.681,5.035,12.144,5.035c2.258,0,4.539-0.446,6.714-1.363 c6.484-2.731,10.629-9.04,10.561-16.084l-1.04-99.795c6.087-5.348,11.794-11.13,17.047-17.274l99.834-0.291 c7.025-0.023,13.275-4.241,15.923-10.747C503.851,349.173,502.324,341.788,497.302,336.858z M340.845,47.265l0.178,61.09 c-13.451-7.763-27.883-13.631-42.933-17.455L340.845,47.265z M211.695,91.479c-14.978,4.021-29.317,10.077-42.659,18.018 l-0.637-61.076L211.695,91.479z M47.265,171.142l61.106-0.178c-7.77,13.453-13.642,27.885-17.469,42.934L47.265,171.142z M48.419,343.586l43.059-43.294c4.019,14.976,10.074,29.317,18.011,42.659L48.419,343.586z M171.141,464.735l-0.177-61.106 c13.452,7.77,27.885,13.642,42.934,17.469L171.141,464.735z M300.3,420.521c14.973-4.021,29.309-10.075,42.65-18.011l0.636,61.067 L300.3,420.521z M399.982,270.665c-2.776,27.559-13.361,53.586-30.626,75.286c-6.468,8.158-13.849,15.639-21.945,22.238 c-21.434,17.493-47.237,28.404-74.629,31.561c-0.063,0.006-0.127,0.014-0.19,0.022c-10.277,1.176-20.969,1.245-31.271,0.212 c-27.548-2.774-53.575-13.365-75.287-30.639c-8.091-6.414-15.519-13.735-22.086-21.768c-0.122-0.155-0.241-0.31-0.369-0.459 c-17.355-21.374-28.187-47.069-31.328-74.347c-0.006-0.064-0.013-0.128-0.021-0.191c-0.624-5.448-0.942-11.026-0.942-16.578 c0-4.905,0.246-9.847,0.731-14.678c2.775-27.546,13.364-53.573,30.639-75.287c6.43-8.115,13.806-15.587,21.922-22.214 c21.428-17.498,47.233-28.414,74.638-31.571c0.063-0.006,0.127-0.014,0.19-0.022c10.268-1.177,20.947-1.246,31.258-0.213 c27.554,2.776,53.582,13.357,75.277,30.607c8.181,6.496,15.657,13.881,22.237,21.968c17.536,21.472,28.459,47.336,31.59,74.796 c0,0.004,0,0.006,0.001,0.01c0.624,5.448,0.942,11.034,0.942,16.602C400.712,260.896,400.466,265.833,399.982,270.665z M463.58,168.401l-43.06,43.296c-4.022-14.979-10.08-29.321-18.021-42.66L463.58,168.401z M403.638,341.023 c7.766-13.449,13.635-27.881,17.46-42.933l43.635,42.755L403.638,341.023z"/> </g> </g> <g> <g> <path d="M287.407,296.894c-6.091-3.608-13.957-1.598-17.566,4.495c-2.186,3.69-5.937,6.376-10.295,7.368 c-4.378,0.997-8.766,0.233-12.372-2.171c-1.998-1.324-3.699-3.118-4.921-5.186c-3.601-6.095-11.466-8.117-17.56-4.512 c-6.095,3.604-8.117,11.465-4.513,17.561c3.182,5.382,7.616,10.054,12.797,13.489c6.767,4.512,14.789,6.868,22.928,6.868 c3.117,0,6.25-0.346,9.338-1.049c11.186-2.548,20.904-9.583,26.66-19.298C295.511,308.368,293.498,300.504,287.407,296.894z"/> </g> </g> <g> <g> <path d="M194.343,204.138c-23.981,0-43.489,19.504-43.489,43.477c0,7.08,5.74,12.821,12.821,12.821 c7.081,0,12.821-5.741,12.821-12.821c0-9.834,8.007-17.834,17.847-17.834c9.834,0,17.834,8,17.834,17.834 c0,7.08,5.74,12.821,12.821,12.821s12.821-5.741,12.821-12.821C237.82,223.642,218.316,204.138,194.343,204.138z"/> </g> </g> <g> <g> <path d="M318.311,204.138c-23.981,0-43.489,19.504-43.489,43.477c0,7.08,5.74,12.821,12.821,12.821 c7.081,0,12.821-5.741,12.821-12.821c0-9.834,8.007-17.834,17.847-17.834c9.834,0,17.834,8,17.834,17.834 c0,7.08,5.74,12.821,12.821,12.821s12.821-5.741,12.821-12.821C361.787,223.642,342.284,204.138,318.311,204.138z"/> </g> </g> <g> <g> <path d="M260.103,0c-7.081,0-12.821,5.741-12.821,12.821v29.527c0,7.08,5.74,12.821,12.821,12.821s12.821-5.74,12.821-12.821 V12.821C272.924,5.741,267.184,0,260.103,0z"/> </g> </g> <g> <g> <path d="M42.348,239.063H12.821C5.74,239.063,0,244.805,0,251.884c0,7.08,5.74,12.821,12.821,12.821h29.527 c7.081,0,12.821-5.741,12.821-12.821C55.169,244.805,49.429,239.063,42.348,239.063z"/> </g> </g> <g> <g> <path d="M251.884,456.831c-7.081,0-12.821,5.74-12.821,12.821v29.527c0,7.08,5.74,12.821,12.821,12.821 s12.821-5.741,12.821-12.821v-29.527C264.706,462.572,258.966,456.831,251.884,456.831z"/> </g> </g> <g> <g> <path d="M424.237,411.567l-14.001-13.988c-5.009-5.007-13.128-5.001-18.132,0.008c-5.004,5.009-5.002,13.128,0.008,18.133 l14.001,13.988c2.504,2.501,5.782,3.751,9.062,3.751c3.283,0,6.567-1.254,9.07-3.759 C429.248,424.69,429.246,416.572,424.237,411.567z"/> </g> </g> <g> <g> <path d="M429.702,87.758c-5.007-5.005-13.125-5.005-18.133,0l-13.988,13.988c-5.007,5.007-5.007,13.125,0,18.133 c2.504,2.503,5.785,3.755,9.066,3.755c3.281,0,6.564-1.253,9.067-3.755l13.988-13.988 C434.709,100.885,434.709,92.766,429.702,87.758z"/> </g> </g> <g> <g> <path d="M119.879,96.271l-13.988-13.988c-5.007-5.004-13.125-5.005-18.132,0c-5.007,5.007-5.008,13.125,0,18.133l13.988,13.988 c2.503,2.504,5.784,3.755,9.066,3.755c3.281,0,6.563-1.253,9.066-3.755C124.886,109.398,124.887,101.279,119.879,96.271z"/> </g> </g> <g> <g> <path d="M114.401,392.104c-5.009-5.005-13.126-5-18.132,0.008l-13.988,14.001c-5.004,5.009-5.002,13.128,0.008,18.133 c2.504,2.501,5.782,3.751,9.062,3.751c3.284,0,6.567-1.254,9.07-3.759l13.988-14.001 C119.412,405.228,119.41,397.11,114.401,392.104z"/> </g> </g> <g> <g> <path d="M499.179,247.282h-29.527c-7.081,0-12.821,5.741-12.821,12.821s5.74,12.821,12.821,12.821h29.527 c7.081,0,12.821-5.741,12.821-12.821S506.26,247.282,499.179,247.282z"/> </g> </g> <g> <g> <path d="M78.723,55.114l-2.59-2.59c-5.007-5.005-13.124-5.004-18.132,0.003c-5.007,5.008-5.005,13.125,0.001,18.133l2.59,2.59 c2.503,2.503,5.784,3.754,9.065,3.754c3.282,0,6.563-1.253,9.067-3.757C83.731,68.239,83.73,60.122,78.723,55.114z"/> </g> </g> <g> <g> <path d="M73.225,433.241c-5.019-4.995-13.137-4.976-18.132,0.046l-2.59,2.603c-4.995,5.019-4.973,13.137,0.046,18.132 c2.501,2.489,5.772,3.732,9.043,3.732c3.291,0,6.584-1.259,9.089-3.778l2.59-2.603C78.267,446.353,78.245,438.236,73.225,433.241z "/> </g> </g> <g> <g> <path d="M454,441.341l-2.603-2.603c-5.007-5.007-13.125-5.007-18.132-0.003c-5.008,5.007-5.008,13.124-0.001,18.133l2.603,2.603 c2.504,2.504,5.785,3.757,9.067,3.757c3.281,0,6.562-1.253,9.065-3.754C459.006,454.468,459.006,446.351,454,441.341z"/> </g> </g> <g> <g> <path d="M459.495,58.021c-4.995-5.018-13.113-5.037-18.132-0.041l-2.603,2.591c-5.019,4.995-5.037,13.113-0.042,18.132 c2.505,2.517,5.796,3.776,9.086,3.776c3.272,0,6.544-1.245,9.045-3.735l2.603-2.591C464.472,71.157,464.49,63.039,459.495,58.021z "/> </g> </g> </g>
</svg>